%!PS-Adobe-3.0 EPSF-3.0
%%Creator: cairo 1.14.2 (http://cairographics.org)
%%CreationDate: Wed Aug 17 12:42:54 2016
%%Pages: 1
%%DocumentData: Clean7Bit
%%LanguageLevel: 2
%%BoundingBox: 0 -1 410 367
%%EndComments
%%BeginProlog
save
50 dict begin
/q { gsave } bind def
/Q { grestore } bind def
/cm { 6 array astore concat } bind def
/w { setlinewidth } bind def
/J { setlinecap } bind def
/j { setlinejoin } bind def
/M { setmiterlimit } bind def
/d { setdash } bind def
/m { moveto } bind def
/l { lineto } bind def
/c { curveto } bind def
/h { closepath } bind def
/re { exch dup neg 3 1 roll 5 3 roll moveto 0 rlineto
      0 exch rlineto 0 rlineto closepath } bind def
/S { stroke } bind def
/f { fill } bind def
/f* { eofill } bind def
/n { newpath } bind def
/W { clip } bind def
/W* { eoclip } bind def
/BT { } bind def
/ET { } bind def
/pdfmark where { pop globaldict /?pdfmark /exec load put }
    { globaldict begin /?pdfmark /pop load def /pdfmark
    /cleartomark load def end } ifelse
/BDC { mark 3 1 roll /BDC pdfmark } bind def
/EMC { mark /EMC pdfmark } bind def
/cairo_store_point { /cairo_point_y exch def /cairo_point_x exch def } def
/Tj { show currentpoint cairo_store_point } bind def
/TJ {
  {
    dup
    type /stringtype eq
    { show } { -0.001 mul 0 cairo_font_matrix dtransform rmoveto } ifelse
  } forall
  currentpoint cairo_store_point
} bind def
/cairo_selectfont { cairo_font_matrix aload pop pop pop 0 0 6 array astore
    cairo_font exch selectfont cairo_point_x cairo_point_y moveto } bind def
/Tf { pop /cairo_font exch def /cairo_font_matrix where
      { pop cairo_selectfont } if } bind def
/Td { matrix translate cairo_font_matrix matrix concatmatrix dup
      /cairo_font_matrix exch def dup 4 get exch 5 get cairo_store_point
      /cairo_font where { pop cairo_selectfont } if } bind def
/Tm { 2 copy 8 2 roll 6 array astore /cairo_font_matrix exch def
      cairo_store_point /cairo_font where { pop cairo_selectfont } if } bind def
/g { setgray } bind def
/rg { setrgbcolor } bind def
/d1 { setcachedevice } bind def
%%EndProlog
%%BeginSetup
%%EndSetup
%%Page: 1 1
%%BeginPageSetup
%%PageBoundingBox: 0 -1 410 367
%%EndPageSetup
q 0 -1 410 368 rectclip q
0.815686 0.933333 0.937255 rg
18.004 366.84 m 8.102 366.84 0 358.738 0 348.836 c 0 141.785 l 213.801 
123.781 l 204.801 366.84 l h
18.004 366.84 m f
0.627451 0.866667 0.87451 rg
409.602 348.836 m 409.602 358.738 401.5 366.84 391.598 366.84 c 204.801
 366.84 l 204.801 132.781 l 409.602 141.785 l h
409.602 348.836 m f
0.0784314 0.521569 0.541176 rg
249.812 6.75 m 249.812 96.774 l 159.789 96.774 l 159.789 6.75 l f
307.199 210.516 m 279.184 210.516 255.215 193.254 245.309 168.793 c 369.09
 168.793 l 359.184 193.254 335.215 210.516 307.199 210.516 c h
307.199 210.516 m f
0.894118 0.462745 0.603922 rg
347.711 278.031 m 347.711 255.66 329.574 237.524 307.199 237.524 c 284.828
 237.524 266.691 255.66 266.691 278.031 c 266.691 300.406 284.828 318.543
 307.199 318.543 c 329.574 318.543 347.711 300.406 347.711 278.031 c h
347.711 278.031 m f
0.854902 0.356863 0.509804 rg
102.398 210.516 m 74.387 210.516 50.414 193.254 40.508 168.793 c 164.289
 168.793 l 154.383 193.254 130.414 210.516 102.398 210.516 c h
102.398 210.516 m f
0.933333 0.627451 0.713726 rg
142.91 278.031 m 142.91 255.66 124.773 237.524 102.398 237.524 c 80.027
 237.524 61.891 255.66 61.891 278.031 c 61.891 300.406 80.027 318.543 102.398
 318.543 c 124.773 318.543 142.91 300.406 142.91 278.031 c h
142.91 278.031 m f
0.254902 0.733333 0.745098 rg
0 141.785 m 0 105.777 l 0 95.875 8.102 87.774 18.004 87.774 c 391.594 87.774
 l 401.496 87.774 409.598 95.875 409.598 105.777 c 409.598 141.785 l h
0 141.785 m f
333.082 0 m 76.52 0 l 72.789 0 69.766 3.024 69.766 6.75 c 69.766 10.481
 72.789 13.504 76.52 13.504 c 333.082 13.504 l 336.809 13.504 339.832 10.481
 339.832 6.75 c 339.832 3.024 336.812 0 333.082 0 c h
333.082 0 m f
0.0313726 0.376471 0.388235 rg
211.551 114.777 m 211.551 111.051 208.527 108.027 204.801 108.027 c 201.07
 108.027 198.047 111.051 198.047 114.777 c 198.047 118.508 201.07 121.531
 204.801 121.531 c 208.527 121.531 211.551 118.508 211.551 114.777 c h
211.551 114.777 m f
Q Q
showpage
%%Trailer
end restore
%%EOF
